<?xml version="1.0" encoding="utf-8"?>
<!-- Generator: Adobe Illustrator 19.2.1, SVG Export Plug-In . SVG Version: 6.00 Build 0)  -->
<svg xmlns="http://www.w3.org/2000/svg" xmlns:xlink="http://www.w3.org/1999/xlink" version="1.1" id="Ebene_1" x="0px" y="0px" viewBox="0 0 269 269.7" style="enable-background:new 0 0 269 269.7;" xml:space="preserve">
<style type="text/css">
	.st0{fill:#07659E;}
	.st1{fill:#39ABE2;}
</style>
<g>
	<g>
		<path class="st0" d="M21.4,125.6C27.8,61.8,84.8,15.1,148.6,21.4c12,1.2,23.4,4.2,33.9,8.7c10.2-0.2,24.5,0.2,43.1,2.4    c-20.5-17.4-46.3-29-75-31.8C75.5-6.8,8.2,48.3,0.7,123.5c-3.6,36.2,7.3,70.6,28,97.4c7.2-1.1,15-2.7,22.9-5.2    C29.9,192.1,18,159.8,21.4,125.6z"/>
	</g>
	<path class="st0" d="M248.8,63.2c-9.3,1.5-16.8,3.1-21.9,4.3c15.7,21.9,23.8,49.3,20.9,78.1c-6.3,63-62.6,109.2-125.6,102.9   c-0.3,0-0.5-0.1-0.8-0.1c-18.4,4.2-39.7,4.4-54.3,3.8c15.9,9,33.8,14.9,53.1,16.8c74.3,7.4,140.8-47.1,148.2-121.4   C271.4,116.9,263.9,87.6,248.8,63.2z"/>
	<path class="st1" d="M245.8,44.1c-0.5-0.1-0.9-0.1-1.4-0.2C89,25.7,70.5,112.2,70.5,112.2l2.7,38.3c5.6-13.2,16.1-33.1,34.2-52.3   C132,72.1,175.2,43.4,245.8,44.1z"/>
	<path class="st0" d="M111.5,102c-18.4,19.5-28.8,40.1-33.9,52.8l51.4-17.9c0,0,0,0,11.9-17.7c17.4-25.7,50.3-59.2,107.1-69.4   C178.1,48.4,135.5,76.5,111.5,102z"/>
	<path class="st1" d="M25.2,237.5c0.5,0.1,0.9,0.2,1.4,0.2c153.9,28.1,177.8-57,177.8-57l-0.3-38.4c-6.4,12.8-18.2,32-37.4,50.1   C140.6,216.8,95.7,242.7,25.2,237.5z"/>
	<path class="st0" d="M162.9,188.3c19.6-18.3,31.3-38.2,37.2-50.6l-52.4,14.6c0,0,0,0-13,16.9c-19,24.5-53.9,55.9-111.3,62.4   C93.1,237.5,137.3,212.2,162.9,188.3z"/>
</g>
</svg>
