{
    "document": {
        "id": "ZG9jdW1lbnQ6cnk2enBnY241OQ==",
        "documentId": "ry6zpgcn59",
        "title": "Manuscript title",
        "subtitle": null,
        "modifiedAt": 1610555887968,
        "sharedSecrets": [
            "fd6e7da5-7f03-4c43-b90f-a820bd901933"
        ],
        "authors": [
            {
                "roles": [
                    "Admin",
                    "Author"
                ],
                "positions": [
                    {
                        "title": "Co-Founder",
                        "department": "",
                        "institution": "SciFlow GmbH",
                        "street": "Altensteinstrasse",
                        "city": "Berlin",
                        "country": "Germany",
                        "primary": false
                    },
                    {
                        "title": "Researcher",
                        "department": "Computer Science",
                        "institution": "University of Paderborn",
                        "street": "Fürstenallee 5",
                        "city": "Paderborn",
                        "country": "Germany",
                        "primary": false
                    }
                ],
                "firstName": "Frederik",
                "lastName": "Eichler",
                "email": "frederik.eichler@sciflow.net",
                "rank": 0
            }
        ],
        "index": [
            "yv0pd4",
            "aprtcvh83q"
        ],
        "parts": [
            {
                "id": "cGFydDp5djBwZDQ=",
                "type": "abstract",
                "schema": "chapter",
                "options": {
                    "numbering": "none",
                    "pageBreak": []
                },
                "document": {
                    "type": "doc",
                    "attrs": {
                        "type": "chapter",
                        "lang": ""
                    },
                    "content": [
                        {
                            "type": "heading",
                            "attrs": {
                                "id": "o0n1mgw",
                                "level": 1
                            },
                            "content": [
                                {
                                    "type": "text",
                                    "text": "Abstract"
                                }
                            ]
                        },
                        {
                            "type": "paragraph",
                            "attrs": {
                                "id": "o3qi1289bxwb",
                                "text-align": null
                            },
                            "content": [
                                {
                                    "type": "text",
                                    "text": "I'm baby asymmetrical tofu leggings schlitz single-origin coffee activated charcoal church-key chambray. Fashion axe blue bottle literally, trust fund irony try-hard sartorial palo santo. Activated charcoal photo booth paleo sustainable ennui, asymmetrical lo-fi pop-up swag neutra tumeric distillery DIY mixtape. Knausgaard mustache cray four loko. Mustache vape plaid, photo booth mumblecore meggings neutra pinterest XOXO hammock. Godard kogi everyday carry aesthetic. Etsy venmo chicharrones aesthetic."
                                }
                            ]
                        }
                    ]
                }
            },
            {
                "id": "cGFydDphcHJ0Y3ZoODNx",
                "type": "chapter",
                "schema": "chapter",
                "options": {
                    "numbering": "numeric",
                    "placement": "body"
                },
                "document": {
                    "type": "doc",
                    "attrs": {
                        "type": "chapter",
                        "lang": ""
                    },
                    "content": [
                        {
                            "type": "heading",
                            "attrs": {
                                "id": "lv8qfg1thbq",
                                "level": 1
                            },
                            "content": [
                                {
                                    "type": "text",
                                    "text": "Introduction"
                                }
                            ]
                        },
                        {
                            "type": "paragraph",
                            "attrs": {
                                "id": "l31ku98ir6zk",
                                "text-align": null
                            },
                            "content": [
                                {
                                    "type": "text",
                                    "text": "Locavore chillwave ennui jianbing, bicycle rights mustache mixtape tote bag narwhal iceland seitan sartorial retro. Small batch kinfolk prism, cold-pressed vexillologist tumeric mumblecore raclette pop-up hoodie drinking vinegar before they sold out kale chips. Quinoa hot chicken wolf DIY roof party. VHS thundercats chicharrones intelligentsia aesthetic cross-ref to "
                                },
                                {
                                    "type": "link",
                                    "attrs": {
                                        "type": "xref",
                                        "href": "#o0n1mgw"
                                    }
                                },
                                {
                                    "type": "text",
                                    "text": ". Raclette waistcoat drinking vinegar chillwave citation of "
                                },
                                {
                                    "type": "citation",
                                    "attrs": {
                                        "source": "%5B%7B%22id%22:%22WittenDataTechniques%22%7D%5D",
                                        "style": null,
                                        "id": "imk9nmlcrebj"
                                    }
                                },
                                {
                                    "type": "text",
                                    "text": "."
                                }
                            ]
                        },
                        {
                            "type": "figure",
                            "attrs": {
                                "id": "bxwgw9j2mdv",
                                "alt": null,
                                "type": "figure"
                            },
                            "content": [
                                {
                                    "type": "caption",
                                    "content": [
                                        {
                                            "type": "paragraph",
                                            "attrs": {
                                                "id": "dnhccyep7n1",
                                                "text-align": null
                                            },
                                            "content": [
                                                {
                                                    "type": "text",
                                                    "text": "A figure image"
                                                }
                                            ]
                                        },
                                        {
                                            "type": "paragraph",
                                            "attrs": {
                                                "id": "jzju658l559r",
                                                "text-align": null
                                            },
                                            "content": [
                                                {
                                                    "type": "text",
                                                    "text": "A figure caption"
                                                }
                                            ]
                                        }
                                    ]
                                }
                            ]
                        },
                        {
                            "type": "paragraph",
                            "attrs": {
                                "id": "z23zror2welv",
                                "text-align": null
                            }
                        },
                        {
                            "type": "paragraph",
                            "attrs": {
                                "id": "w39118zhxeeq",
                                "text-align": null
                            },
                            "content": [
                                {
                                    "type": "text",
                                    "text": "Tilde street art"
                                },
                                {
                                    "type": "text",
                                    "marks": [
                                        {
                                            "type": "sup"
                                        }
                                    ],
                                    "text": "2"
                                },
                                {
                                    "type": "text",
                                    "text": " photo booth"
                                },
                                {
                                    "type": "text",
                                    "marks": [
                                        {
                                            "type": "sub"
                                        }
                                    ],
                                    "text": "down"
                                },
                                {
                                    "type": "text",
                                    "text": " flexitarian, knausgaard tousled glossier intelligentsia organic semiotics cloud bread franzen sriracha. Tousled hell of williamsburg letterpress, roof party try-hard shaman. Authentic direct trade sustainable, deep v affogato "
                                },
                                {
                                    "type": "text",
                                    "marks": [
                                        {
                                            "type": "anchor",
                                            "attrs": {
                                                "href": "https://www.sciflow.net",
                                                "title": "A title",
                                                "id": "b06chh2nzsmpg"
                                            }
                                        }
                                    ],
                                    "text": "dreamcatcher"
                                },
                                {
                                    "type": "text",
                                    "text": " subway tile next level mixtape photo booth quinoa franzen. Af tattooed fingerstache, lo-fi master cleanse green juice craft beer leggings four dollar toast sriracha health goth try-hard. Four dollar toast banjo retro pok pok woke put a bird on it cray VHS. Lo-fi vegan subway tile, tattooed poke VHS activated charcoal."
                                }
                            ]
                        },
                        {
                            "type": "paragraph",
                            "attrs": {
                                "id": "yt7el21978nc",
                                "text-align": null
                            },
                            "content": [
                                {
                                    "type": "math",
                                    "attrs": {
                                        "id": "tgvef0txhirf",
                                        "tex": "\\alpha + \\beta",
                                        "style": "inline"
                                    },
                                    "content": [
                                        {
                                            "type": "text",
                                            "text": "\\alpha + \\beta"
                                        }
                                    ]
                                }
                            ]
                        },
                        {
                            "type": "paragraph",
                            "attrs": {
                                "id": "rpkyweur5hod",
                                "text-align": null
                            },
                            "content": [
                                {
                                    "type": "text",
                                    "text": "A list"
                                }
                            ]
                        },
                        {
                            "type": "bullet_list",
                            "content": [
                                {
                                    "type": "list_item",
                                    "content": [
                                        {
                                            "type": "paragraph",
                                            "attrs": {
                                                "id": "sgaimp00y4xw",
                                                "text-align": null
                                            },
                                            "content": [
                                                {
                                                    "type": "text",
                                                    "text": "One (unordered)"
                                                }
                                            ]
                                        },
                                        {
                                            "type": "bullet_list",
                                            "content": [
                                                {
                                                    "type": "list_item",
                                                    "content": [
                                                        {
                                                            "type": "paragraph",
                                                            "attrs": {
                                                                "id": "ulz7nhndugyd",
                                                                "text-align": null
                                                            },
                                                            "content": [
                                                                {
                                                                    "type": "text",
                                                                    "text": "Nested in one"
                                                                }
                                                            ]
                                                        }
                                                    ]
                                                }
                                            ]
                                        }
                                    ]
                                },
                                {
                                    "type": "list_item",
                                    "content": [
                                        {
                                            "type": "paragraph",
                                            "attrs": {
                                                "id": "u9en24dnlbs",
                                                "text-align": null
                                            },
                                            "content": [
                                                {
                                                    "type": "text",
                                                    "text": "Two"
                                                }
                                            ]
                                        }
                                    ]
                                }
                            ]
                        },
                        {
                            "type": "paragraph",
                            "attrs": {
                                "id": "b8ieas9qgemm",
                                "text-align": null
                            },
                            "content": [
                                {
                                    "type": "text",
                                    "text": "Ordered:"
                                }
                            ]
                        },
                        {
                            "type": "ordered_list",
                            "attrs": {
                                "order": 1
                            },
                            "content": [
                                {
                                    "type": "list_item",
                                    "content": [
                                        {
                                            "type": "paragraph",
                                            "attrs": {
                                                "id": "h9l0iysitjxb",
                                                "text-align": null
                                            },
                                            "content": [
                                                {
                                                    "type": "text",
                                                    "text": "Item one"
                                                }
                                            ]
                                        }
                                    ]
                                },
                                {
                                    "type": "list_item",
                                    "content": [
                                        {
                                            "type": "paragraph",
                                            "attrs": {
                                                "id": "pe5r66z4fvnf",
                                                "text-align": null
                                            },
                                            "content": [
                                                {
                                                    "type": "text",
                                                    "text": "Item two (ordered)"
                                                }
                                            ]
                                        }
                                    ]
                                }
                            ]
                        },
                        {
                            "type": "paragraph",
                            "attrs": {
                                "id": "ffdscwp2ht7v",
                                "text-align": null
                            },
                            "content": [
                                {
                                    "type": "text",
                                    "text": "Some text."
                                }
                            ]
                        },
                        {
                            "type": "blockquote",
                            "content": [
                                {
                                    "type": "paragraph",
                                    "attrs": {
                                        "id": "abdjfs9ikrbm",
                                        "text-align": null
                                    },
                                    "content": [
                                        {
                                            "type": "text",
                                            "text": "A blockquote"
                                        }
                                    ]
                                }
                            ]
                        },
                        {
                            "type": "paragraph",
                            "attrs": {
                                "id": "ujjrjs41wics",
                                "text-align": null
                            }
                        }
                    ]
                }
            }
        ],
        "references": [
            {
                "ISBN": "9780128043578",
                "URL": "https://books.google.de/books?hl=de&lr=&id=1SylCgAAQBAJ&oi=fnd&pg=PP1&dq=Data+Mining:+Practical+Machine+Learning+Tools+and+Techniques&ots=8IFIxhjDt7&sig=9WvfPO3RlZqRQnMmGmhdz0e5XI4#v=onepage&q=Data%20Mining%3A%20Practical%20Machine%20Learning%20Tools%20and%20Techniques&f=false",
                "author": [
                    {
                        "family": "Witten",
                        "given": "I. H. (Ian H.)"
                    },
                    {
                        "family": "Frank",
                        "given": "Eibe"
                    },
                    {
                        "family": "Hall",
                        "given": "Mark A. (Mark Andrew)"
                    },
                    {
                        "family": "Pal",
                        "given": "Christopher J."
                    }
                ],
                "id": "WittenDataTechniques",
                "page": "621",
                "title": "<span class=\"nocase\">Data mining : practical machine learning tools and techniques</span>",
                "type": "book",
                "_key": {
                    "id": "cmVmZXJlbmNlOnJlZi1vcXg1c2Rv",
                    "modifiedAt": "2019-06-17T10:30:12.827Z",
                    "source": "Mendeley",
                    "user": "dXNlcjo1aW1wZ3lwOWpnem0="
                },
                "received": 1610555887960
            }
        ],
        "files": [
            {
                "id": "bxwgw9j2mdv",
                "url": "https://app.localhost/files/ry6zpgcn59/39cf29e35ed737af8f8e9cdc4455a1a8/bxwgw9j2mdv-0.1610555871418.png",
                "type": "image",
                "dimensions": {
                    "height": 3316,
                    "width": 4086
                }
            }
        ]
    }
}