<svg
  class="templates-icon"
  xmlns="http://www.w3.org/2000/svg"
  viewBox="0 0 24 24">
  <defs>
    <style>.templates-icon .cls-1{fill:none;} .templates-icon .cls-2{isolation:isolate;} .templates-icon .cls-3{clip-path:url(#clip-path);} .templates-icon .cls-4{fill:#0d7dbc;} .templates-icon .cls-5{fill:#095782;}</style>
    <clipPath id="clip-path">
      <rect class="cls-1" width="24" height="24"/>
    </clipPath>
  </defs>
  <g class="cls-2">
    <g class="cls-3">
      <path class="cls-4" d="M16.55,17.53H15A.75.75,0,0,1,15,16h.77V6.15H8.24L8.2,16H9a.75.75,0,0,1,0,1.5H7.45a.75.75,0,0,1-.75-.75l0-11.38a.74.74,0,0,1,.75-.75h9.05a.75.75,0,0,1,.75.75V16.78A.75.75,0,0,1,16.55,17.53Z"/>
      <path class="cls-5" d="M9.72,8.54h4.56a.5.5,0,0,0,0-1H9.72a.5.5,0,1,0,0,1Z"/>
      <path class="cls-5" d="M14.28,9.74H9.72a.5.5,0,0,0,0,1h4.56a.5.5,0,0,0,0-1Z"/>
      <path class="cls-5" d="M12.35,13a.48.48,0,0,0-.7,0l-1.71,1.7a.51.51,0,0,0-.11.55.5.5,0,0,0,.46.31h.78V18.6a.5.5,0,0,0,.5.5h.86a.5.5,0,0,0,.5-.5V15.53h.78a.5.5,0,0,0,.46-.31.51.51,0,0,0-.11-.55Z"/>
    </g>
  </g>
</svg>