{
    "pandoc-api-version": [
        1,
        22,
        2
    ],
    "meta": {
        "references": {
            "t": "MetaList",
            "c": [
                {
                    "t": "MetaMap",
                    "c": {
                        "author": {
                            "t": "MetaList",
                            "c": [
                                {
                                    "t": "MetaMap",
                                    "c": {
                                        "family": {
                                            "t": "MetaString",
                                            "c": "Smith"
                                        },
                                        "given": {
                                            "t": "MetaString",
                                            "c": "James"
                                        }
                                    }
                                }
                            ]
                        },
                        "id": {
                            "t": "MetaString",
                            "c": "272"
                        },
                        "issued": {
                            "t": "MetaString",
                            "c": "2000"
                        },
                        "title": {
                            "t": "MetaInlines",
                            "c": [
                                {
                                    "t": "Str",
                                    "c": "Book"
                                },
                                {
                                    "t": "Space"
                                },
                                {
                                    "t": "Str",
                                    "c": "one"
                                }
                            ]
                        },
                        "type": {
                            "t": "MetaString",
                            "c": "book"
                        }
                    }
                },
                {
                    "t": "MetaMap",
                    "c": {
                        "author": {
                            "t": "MetaList",
                            "c": [
                                {
                                    "t": "MetaMap",
                                    "c": {
                                        "family": {
                                            "t": "MetaString",
                                            "c": "Jones"
                                        },
                                        "given": {
                                            "t": "MetaString",
                                            "c": "Tom"
                                        }
                                    }
                                }
                            ]
                        },
                        "id": {
                            "t": "MetaString",
                            "c": "273"
                        },
                        "issued": {
                            "t": "MetaString",
                            "c": "1999"
                        },
                        "title": {
                            "t": "MetaInlines",
                            "c": [
                                {
                                    "t": "Str",
                                    "c": "Book"
                                },
                                {
                                    "t": "Space"
                                },
                                {
                                    "t": "Str",
                                    "c": "two"
                                }
                            ]
                        },
                        "type": {
                            "t": "MetaString",
                            "c": "book"
                        }
                    }
                }
            ]
        }
    },
    "blocks": [
        {
            "t": "Para",
            "c": [
                {
                    "t": "Cite",
                    "c": [
                        [
                            {
                                "citationId": "273",
                                "citationPrefix": [],
                                "citationSuffix": [],
                                "citationMode": {
                                    "t": "NormalCitation"
                                },
                                "citationNoteNum": 0,
                                "citationHash": 0
                            },
                            {
                                "citationId": "272",
                                "citationPrefix": [],
                                "citationSuffix": [],
                                "citationMode": {
                                    "t": "NormalCitation"
                                },
                                "citationNoteNum": 0,
                                "citationHash": 0
                            }
                        ],
                        [
                            {
                                "t": "Str",
                                "c": "(Jones,"
                            },
                            {
                                "t": "Space"
                            },
                            {
                                "t": "Str",
                                "c": "1999;"
                            },
                            {
                                "t": "Space"
                            },
                            {
                                "t": "Str",
                                "c": "Smith,"
                            },
                            {
                                "t": "Space"
                            },
                            {
                                "t": "Str",
                                "c": "2000)"
                            }
                        ]
                    ]
                },
                {
                    "t": "Space"
                },
                {
                    "t": "Str",
                    "c": "and"
                },
                {
                    "t": "Space"
                },
                {
                    "t": "Str",
                    "c": "the"
                },
                {
                    "t": "Space"
                },
                {
                    "t": "Str",
                    "c": "same"
                },
                {
                    "t": "Space"
                },
                {
                    "t": "Str",
                    "c": "book"
                },
                {
                    "t": "Space"
                },
                {
                    "t": "Str",
                    "c": "again"
                },
                {
                    "t": "Space"
                },
                {
                    "t": "Cite",
                    "c": [
                        [
                            {
                                "citationId": "273",
                                "citationPrefix": [],
                                "citationSuffix": [],
                                "citationMode": {
                                    "t": "NormalCitation"
                                },
                                "citationNoteNum": 0,
                                "citationHash": 0
                            }
                        ],
                        [
                            {
                                "t": "Str",
                                "c": "(Jones,"
                            },
                            {
                                "t": "Space"
                            },
                            {
                                "t": "Str",
                                "c": "1999)"
                            }
                        ]
                    ]
                }
            ]
        },
        {
            "t": "Para",
            "c": [
                {
                    "t": "Cite",
                    "c": [
                        [
                            {
                                "citationId": "272",
                                "citationPrefix": [
                                    {
                                        "t": "Str",
                                        "c": "see"
                                    }
                                ],
                                "citationSuffix": [
                                    {
                                        "t": "Str",
                                        "c": ","
                                    },
                                    {
                                        "t": "Space"
                                    },
                                    {
                                        "t": "Str",
                                        "c": "chapter"
                                    },
                                    {
                                        "t": "Space"
                                    },
                                    {
                                        "t": "Str",
                                        "c": "22"
                                    },
                                    {
                                        "t": "Space"
                                    },
                                    {
                                        "t": "Str",
                                        "c": "and"
                                    },
                                    {
                                        "t": "Space"
                                    },
                                    {
                                        "t": "Str",
                                        "c": "others"
                                    }
                                ],
                                "citationMode": {
                                    "t": "NormalCitation"
                                },
                                "citationNoteNum": 0,
                                "citationHash": 0
                            }
                        ],
                        [
                            {
                                "t": "Str",
                                "c": "(see"
                            },
                            {
                                "t": "Space"
                            },
                            {
                                "t": "Str",
                                "c": "Smith,"
                            },
                            {
                                "t": "Space"
                            },
                            {
                                "t": "Str",
                                "c": "2000,"
                            },
                            {
                                "t": "Space"
                            },
                            {
                                "t": "Str",
                                "c": "Chapter"
                            },
                            {
                                "t": "Space"
                            },
                            {
                                "t": "Str",
                                "c": "22"
                            },
                            {
                                "t": "Space"
                            },
                            {
                                "t": "Str",
                                "c": "and"
                            },
                            {
                                "t": "Space"
                            },
                            {
                                "t": "Str",
                                "c": "others)"
                            }
                        ]
                    ]
                }
            ]
        }
    ]
}